\relax 
\@writefile{lot}{\contentsline {table}{\numberline {1}{\ignorespaces Matrix multiply with no blocking}}{1}}
\@writefile{lot}{\contentsline {table}{\numberline {2}{\ignorespaces Matrix multiply with blocking}}{2}}
\@writefile{lot}{\contentsline {table}{\numberline {3}{\ignorespaces Iterative mergesort}}{2}}
\@writefile{lot}{\contentsline {table}{\numberline {4}{\ignorespaces Tailed mergesort}}{2}}
\@writefile{lot}{\contentsline {table}{\numberline {5}{\ignorespaces Blocking matrix multiply with cache-level 2}}{3}}
\bibstyle{apalike}
\bibdata{sample}
\@writefile{lot}{\contentsline {table}{\numberline {6}{\ignorespaces Tailed mergesort with cache-level 2}}{4}}
